{
  "cities":
          [
            {
              "name": "Pittsburgh",
              "x": 948,
              "y": 268
            },
            {
              "name": "Vancouver",
              "x": 110,
              "y": 84
            },
            {
              "name": "Seattle",
              "x": 106,
              "y": 148
            },
            {
              "name": "Portland",
              "x": 82,
              "y": 206
            },
            {
              "name": "San Francisco",
              "x": 66,
              "y": 436
            },
            {
              "name": "Los Angles",
              "x": 154,
              "y": 556
            },
            {
              "name": "Calgary",
              "x": 262,
              "y": 64
            },
            {
              "name": "Helena",
              "x": 378,
              "y": 218
            },
            {
              "name": "Salt Lake City",
              "x": 296,
              "y": 360
            },
            {
              "name": "Las Vegas",
              "x": 230,
              "y": 488
            },
            {
              "name": "Phoenix",
              "x": 294,
              "y": 566
            },
            {
              "name": "Denver",
              "x": 446,
              "y": 398
            },
            {
              "name": "Santa Fe",
              "x": 438,
              "y": 502
            },
            {
              "name": "El Paso",
              "x": 432,
              "y": 606
            },
            {
              "name": "Winnipeg",
              "x": 522,
              "y": 76
            },
            {
              "name": "Duluth",
              "x": 654,
              "y": 210
            },
            {
              "name": "Omaha",
              "x": 618,
              "y": 316
            },
            {
              "name": "Kansas City",
              "x": 642,
              "y": 376
            },
            {
              "name": "Oklahoma City",
              "x": 620,
              "y": 476
            },
            {
              "name": "Dallas",
              "x": 642,
              "y": 578
            },
            {
              "name": "Houston",
              "x": 690,
              "y": 626
            },
            {
              "name": "Little Rock",
              "x": 724,
              "y": 484
            },
            {
              "name": "Saint Louis",
              "x": 742,
              "y": 390
            },
            {
              "name": "Chicago",
              "x": 796,
              "y": 282
            },
            {
              "name": "Sault St. Marie",
              "x": 800,
              "y": 134
            },
            {
              "name": "New Orleans",
              "x": 802,
              "y": 618
            },
            {
              "name": "Atlanta",
              "x": 910,
              "y": 464
            },
            {
              "name": "Nashville",
              "x": 852,
              "y": 422
            },
            {	
              "name": "Toronto",
              "x": 926,
              "y": 160
            },
            {
              "name": "Montreal",
              "x": 1024,
              "y": 60
            },
            {
              "name": "Boston",
              "x": 1104,
              "y": 128
            },
            {
              "name": "Washington",
              "x": 1054,
              "y": 318
            },
            {
              "name": "New York",
              "x": 1044,
              "y": 212
            },
            {
              "name": "Raleigh",
              "x": 986,
              "y": 396
            },
            {
              "name": "Charleston",
              "x": 1020,
              "y": 472
            },
            {
              "name": "Miami",
              "x": 1056,
              "y": 654
            }
          ]
}